Schiff Specimen                                                              1/2



                      .        
                   \  |  /     
                 '-.-' '-.-'   
               - --(     )-- - 
                 .-'-. .-'-.   
                   /  |  \     

                      '        


                                    / \            .-')   .-') 
                                    ` |      / \   | (    | (  
                   /'-.)      / \   | |/\    `    /  _'/ /  _'/
                  / -/.-.    / \ \, | |\ \   / \   | |    | |  
                 /  \/   \  | | '/  | | | |  ` |   | |    | | 
                  \ / \   ) | |     | | | |  | |   | |    | |
                   -.  ) /  | |     | | | |  | |   | |    | |
                  (  )/ /   | | ,   |  -| |  |  -  | |    | |
                   '-.-'     \ /     \/ / /   \/   | |    | |
                                       / /         | |    | |
                                      /.'           \      \

                                                               .:(`  )`. 
                                                            :(   .    ) 
                                                       .--  `.  (    ) )
                                                    .+(   )   ` _`  ) )         
              (`  ).                                (   .  )     (   )          
             (     ).                              (   (   )      `-'.-(`  )    
            _(       '`.                            `- __.'         :(      ))  
        .=(`(      .   )                                            `(    )  )) 
       ((    (..__.:'-'                                               ` __.:'   
       `(       ) )                     |                                       
         ` __.:'   )              |     |           
      ( )       --'               | .---'''--.      
     (_.'          .')        .-----|        |      
                  (_  )       |     ;,,..--..|                                 
                              ;...-.----''\'--.                                
                             .-----|      |\  |                                
                             |     ;,,..--| \.|                                
                             ;...-.----'';|  \'.                               
                            .-----|      ||   \|                               
                            |     ;,,..-.||    \                               
                            ;...-.----'''||_    \.                             
                           .-----|       |_ `-._ \                             
                           ;     ;,,..--.|_`-._ \-\                            
                          ;__,,..----''''| `-._\-\ \                           
                          .-----|        |    \ \ \ _,                         
                          |     ;___...-.'-..__\_\,'                           
                         ._--'''|   ___,|,---''';                              
                          :````--'''  _____,--'/                               
                          :`-------'''        ;                                
                ~~~~~  ~~~ :__________________; ~~~~   ~~~~~ ~~~~              
          ~  ~~~ jrei ~~~~~    ~~~~~    ~~~~~     ~~~~~~~ ~ ~~~~ ~~  ~~ ~      
                ~ ~~~~~~             ~~~~  ~~~   ~~~~ ~  ~          
                                                          


dng                                                                      09/2019
